# Blender MTL File: 'None'
# Material Count: 2

newmtl Green_leafs.002
Ns 96.078431
Ka 0.000000 0.000000 0.000000
Kd 0.298039 0.529412 0.427451
Ks 0.330000 0.330000 0.330000
Ke 0.000000 0.000000 0.000000
Ni 1.000000
d 1.000000
illum 2

newmtl Wood.002
Ns 96.078431
Ka 0.000000 0.000000 0.000000
Kd 0.666667 0.545098 0.356863
Ks 0.330000 0.330000 0.330000
Ke 0.000000 0.000000 0.000000
Ni 1.000000
d 1.000000
illum 2
