# Blender v2.77 (sub 0) OBJ File: ''
# www.blender.org
mtllib oak_large.mtl
o Mesh1_Large_Oak_Green_Model
v 1.234710 0.000000 -1.032400
v 1.335190 0.971550 -1.132890
v 1.335190 0.971550 -1.482510
v 1.234710 0.000000 -1.582990
v 1.785290 0.000000 -1.032400
v 1.684810 0.971550 -1.132890
v 1.785290 0.000000 -1.582990
v 1.684810 0.971550 -1.482510
v 2.098900 0.971550 -2.327700
v 0.921100 0.971550 -2.327700
v 0.921100 0.971550 -0.287694
v 0.332200 0.971550 -1.307700
v 0.755000 1.591550 0.000000
v 0.000000 1.591550 -1.307700
v 2.098900 0.971550 -0.287694
v 2.265000 1.591550 0.000000
v 2.687800 0.971550 -1.307700
v 2.265000 1.591550 -2.615400
v 3.020000 1.591550 -1.307700
v 2.091350 3.771550 -2.314630
v 2.672700 3.771550 -1.307700
v 0.755000 1.591550 -2.615400
v 0.928650 3.771550 -2.314630
v 0.347300 3.771550 -1.307700
v 1.510000 4.601550 -1.307700
v 0.928650 3.771550 -0.300771
v 2.091350 3.771550 -0.300771
vt -0.5149 0.5017
vt -0.7195 0.0577
vt -0.4693 0.0577
vt 0.7658 0.4922
vt 0.5612 0.0483
vt 0.8115 0.0483
vt 0.7195 -0.0835
vt 0.5149 0.3605
vt 0.4693 -0.0835
vt -0.5612 0.7195
vt -0.8115 0.4693
vt -0.5612 0.4693
vt -0.6069 0.3699
vt -0.8115 -0.0740
vt -0.5612 -0.0740
vt -0.6739 0.5017
vt 0.6069 0.4922
vt 0.6739 0.3605
vt -0.8115 0.7195
vt -0.7658 0.3699
vt -0.6069 0.6739
vt -0.9540 1.0581
vt -0.7658 0.6739
vt -0.4187 1.0581
vt -0.4187 0.1308
vt -0.1510 0.5944
vt 0.0961 0.2204
vt -0.5148 0.5311
vt -0.4393 0.2204
vt 0.4187 0.3455
vt 1.0295 0.6562
vt 0.3432 0.6562
vt -0.6069 0.5149
vt -0.9540 0.1308
vt -0.7658 0.5149
vt -1.2217 0.5944
vt -0.1716 1.2817
vt 0.4393 0.9710
vt 0.5148 1.2817
vt 0.5148 0.5135
vt -0.0927 1.5138
vt -0.1716 0.5135
vt -0.4221 1.5545
vt -1.0295 0.5542
vt -0.3432 0.5542
vt -1.1222 1.6763
vt -0.5148 0.6760
vt -0.5937 1.6763
vt -0.5937 0.9666
vt -0.8580 1.5597
vt -1.1222 0.9666
vt 0.0927 1.4253
vt -0.1716 2.0184
vt -0.4358 1.4253
vt 0.9506 1.1959
vt 0.6864 1.7891
vt 0.4221 1.1959
vt 1.1222 0.5079
vt 0.8580 1.1011
vt 0.5937 0.5079
vt 0.4358 0.0492
vt 0.1716 0.6424
vt -0.0927 0.0492
vt -0.6864 0.8717
vt -0.9506 0.2786
vt -0.4221 0.2786
vt 1.2011 0.5948
vt 0.5937 1.5951
vt 0.5148 0.5948
vt 1.2011 1.0315
vt 0.5903 0.7208
vt 1.1256 0.7208
vt 0.9506 1.7169
vt 0.3432 0.7166
vt 1.0295 0.7166
vt 0.0927 1.7576
vt -0.5148 0.7573
vt 0.1716 0.7573
vt -1.1256 0.4706
vt -0.5148 0.7813
vt -1.2011 0.7813
vt -0.9540 0.8459
vt -0.3432 1.1566
vt -1.0295 1.1566
vt 0.1716 0.5311
vt 0.9540 0.3455
vt -0.0961 0.9710
vt 0.4358 1.5138
vt -0.9506 1.5545
vt -1.2011 0.6760
vt 1.1222 1.5951
vt 0.5148 1.0315
vt 0.4221 1.7169
vt -0.4358 1.7576
vt -0.5903 0.4706
vt -0.4187 0.8459
vn -0.9947 0.1029 0.0000
vn 0.0000 0.1029 0.9947
vn 0.9947 0.1029 0.0000
vn 0.0000 -1.0000 -0.0000
vn 0.0000 0.1029 -0.9947
vn -0.7856 -0.4209 0.4535
vn 0.0000 -0.4209 0.9071
vn 0.7856 -0.4209 -0.4536
vn 0.7856 -0.4209 -0.4535
vn 0.8579 0.1367 -0.4953
vn 0.0000 0.1367 -0.9906
vn -0.8579 0.1367 -0.4953
vn -0.5508 0.7716 -0.3180
vn -0.5508 0.7716 0.3180
vn 0.0000 0.7716 0.6361
vn 0.5508 0.7716 0.3180
vn 0.5508 0.7716 -0.3180
vn 0.0000 0.7716 -0.6361
vn 0.8579 0.1367 0.4953
vn 0.7856 -0.4209 0.4535
vn 0.0000 0.1367 0.9906
vn -0.8579 0.1367 0.4953
vn -0.7856 -0.4209 -0.4535
vn -0.7856 -0.4209 -0.4536
vn 0.0000 -0.4209 -0.9071
usemtl Wood.001
s 1
f 2/1/1 4/2/1 1/3/1
f 6/4/2 1/5/2 5/6/2
f 7/7/3 6/8/3 5/9/3
f 4/10/4 5/11/4 1/12/4
f 3/13/5 7/14/5 4/15/5
f 2/1/1 3/16/1 4/2/1
f 6/4/2 2/17/2 1/5/2
f 7/7/3 8/18/3 6/8/3
f 4/10/4 7/19/4 5/11/4
f 3/13/5 8/20/5 7/14/5
usemtl Green_leafs.001
f 3/21/4 9/22/4 8/23/4
f 3/21/4 10/24/4 9/22/4
f 11/25/4 10/24/4 3/21/4
f 10/24/4 11/25/4 12/26/4
f 11/27/6 14/28/6 12/29/6
f 11/30/7 16/31/7 13/32/7
f 11/25/4 2/33/4 15/34/4
f 2/33/4 11/25/4 3/21/4
f 15/34/4 2/33/4 6/35/4
f 15/34/4 6/35/4 9/22/4
f 8/23/4 9/22/4 6/35/4
f 15/34/4 9/22/4 17/36/4
f 19/37/8 9/38/9 18/39/9
f 18/40/10 21/41/10 19/42/10
f 23/43/11 18/44/11 22/45/11
f 23/46/12 14/47/12 24/48/12
f 24/49/13 25/50/13 23/51/13
f 26/52/14 25/53/14 24/54/14
f 27/55/15 25/56/15 26/57/15
f 21/58/16 25/59/16 27/60/16
f 20/61/17 25/62/17 21/63/17
f 25/64/18 20/65/18 23/66/18
f 19/67/19 27/68/19 16/69/19
f 19/70/20 15/71/20 17/72/20
f 27/73/21 13/74/21 16/75/21
f 26/76/22 14/77/22 13/78/22
f 10/79/23 14/80/24 22/81/23
f 9/82/25 22/83/25 18/84/25
f 11/27/6 13/85/6 14/28/6
f 11/30/7 15/86/7 16/31/7
f 19/37/8 17/87/8 9/38/9
f 18/40/10 20/88/10 21/41/10
f 23/43/11 20/89/11 18/44/11
f 23/46/12 22/90/12 14/47/12
f 19/67/19 21/91/19 27/68/19
f 19/70/20 16/92/20 15/71/20
f 27/73/21 26/93/21 13/74/21
f 26/76/22 24/94/22 14/77/22
f 10/79/23 12/95/24 14/80/24
f 9/82/25 10/96/25 22/83/25
